/* XPM */
static char * title_2_inactive_xpm[] = {
"2 26 3 1",
" 	c None",
".	c #9a06f1",
"+	c #9a06f1",
"..",
"++",
"++",
"++",
"++",
"++",
"++",
"++",
"++",
"++",
"++",
"++",
"++",
"++",
"++",
"++",
"++",
"++",
"++",
"++",
"++",
"++",
"++",
"++",
"++",
"++"};
